Week 5
…
and, the full description of the model is as follows:

\[
y_i = \beta_0 + \beta_1 x_{1, i} + \beta_2 x_{2, i} + \dots + \beta_p x_{p, i} + \epsilon_i,
\]

Consider the Credit dataset

attach(ISLR2::Credit)
df <- Credit %>% tibble() %>% rename_all(tolower)
df

# A tibble: 400 × 11
   income limit rating cards   age educat…¹ own   student married region balance
    <dbl> <dbl>  <dbl> <dbl> <dbl>    <dbl> <fct> <fct>   <fct>   <fct>    <dbl>
 1   14.9  3606    283     2    34       11 No    No      Yes     South      333
 2  106.   6645    483     3    82       15 Yes   Yes     Yes     West       903
 3  105.   7075    514     4    71       11 No    No      No      West       580
 4  149.   9504    681     3    36       11 Yes   No      No      West       964
 5   55.9  4897    357     2    68       16 No    No      Yes     South      331
 6   80.2  8047    569     4    77       10 No    No      No      South     1151
 7   21.0  3388    259     2    37       12 Yes   No      No      East       203
 8   71.4  7114    512     2    87        9 No    No      No      West       872
 9   15.1  3300    266     5    66       13 Yes   No      No      South      279
10   71.1  6819    491     3    41       19 Yes   Yes     Yes     East      1350
# … with 390 more rows, and abbreviated variable name ¹​education
…
